<?xml version="1.0" encoding="UTF-8"?>
<svg height="128px" viewBox="0 0 128 128" width="128px" xmlns="http://www.w3.org/2000/svg" xmlns:xlink="http://www.w3.org/1999/xlink">
    <linearGradient id="a" gradientTransform="matrix(0.196428 0 0 0.342105 2.59729 273.740051)" gradientUnits="userSpaceOnUse" x1="88.595886" x2="536.595886" y1="-449.394012" y2="-449.394012">
        <stop offset="0" stop-color="#ffffff"/>
        <stop offset="0.0500001" stop-color="#f6f5f4"/>
        <stop offset="0.099807" stop-color="#deddda"/>
        <stop offset="0.900001" stop-color="#deddda"/>
        <stop offset="0.950001" stop-color="#f6f5f4"/>
        <stop offset="1" stop-color="#ffffff"/>
    </linearGradient>
    <path d="m 28 16 h 72 c 4.417969 0 8 3.582031 8 8 v 88 c 0 4.417969 -3.582031 8 -8 8 h -72 c -4.417969 0 -8 -3.582031 -8 -8 v -88 c 0 -4.417969 3.582031 -8 8 -8 z m 0 0" fill="url(#a)"/>
    <path d="m 28 8 h 72 c 4.417969 0 8 3.582031 8 8 v 92 c 0 4.417969 -3.582031 8 -8 8 h -72 c -4.417969 0 -8 -3.582031 -8 -8 v -92 c 0 -4.417969 3.582031 -8 8 -8 z m 0 0" fill="#ffffff"/>
    <path d="m 37.464844 16.472656 v 8.078125 l -6.996094 -4.035156 l -1.289062 2.222656 l 7 4.046875 l -7 4.042969 l 1.289062 2.222656 l 6.996094 -4.035156 v 8.082031 h 2.578125 v -8.082031 l 6.996093 4.035156 l 1.289063 -2.222656 l -6.996094 -4.042969 l 6.996094 -4.046875 l -1.289063 -2.222656 l -6.996093 4.035156 v -8.078125 z m 0 0" fill="#ed333b"/>
    <g fill="#deddda">
        <path d="m 53.617188 16.464844 h 44.316406 c 1.378906 0 2.496094 0.8125 2.496094 1.8125 s -1.117188 1.8125 -2.496094 1.8125 h -44.316406 c -1.382813 0 -2.5 -0.8125 -2.5 -1.8125 s 1.117187 -1.8125 2.5 -1.8125 z m 0 0"/>
        <path d="m 53.605469 22.464844 h 44.378906 c 1.382813 0 2.5 0.8125 2.5 1.8125 s -1.117187 1.8125 -2.5 1.8125 h -44.378906 c -1.378907 0 -2.5 -0.8125 -2.5 -1.8125 s 1.121093 -1.8125 2.5 -1.8125 z m 0 0"/>
        <path d="m 53.578125 28.464844 h 44.347656 c 1.378907 0 2.496094 0.8125 2.496094 1.8125 s -1.117187 1.8125 -2.496094 1.8125 h -44.347656 c -1.378906 0 -2.496094 -0.8125 -2.496094 -1.8125 s 1.117188 -1.8125 2.496094 -1.8125 z m 0 0"/>
        <path d="m 53.601562 34.464844 h 44.324219 c 1.378907 0 2.496094 0.8125 2.496094 1.8125 s -1.117187 1.8125 -2.496094 1.8125 h -44.324219 c -1.382812 0 -2.5 -0.8125 -2.5 -1.8125 s 1.117188 -1.8125 2.5 -1.8125 z m 0 0"/>
        <path d="m 31.507812 40.464844 h 67.230469 c 1 0 1.816407 0.8125 1.816407 1.8125 s -0.816407 1.8125 -1.816407 1.8125 h -67.230469 c -1.003906 0 -1.816406 -0.8125 -1.816406 -1.8125 s 0.8125 -1.8125 1.816406 -1.8125 z m 0 0"/>
        <path d="m 31.507812 46.464844 h 67.230469 c 1 0 1.816407 0.8125 1.816407 1.8125 s -0.816407 1.8125 -1.816407 1.8125 h -67.230469 c -1.003906 0 -1.816406 -0.8125 -1.816406 -1.8125 s 0.8125 -1.8125 1.816406 -1.8125 z m 0 0"/>
        <path d="m 31.507812 52.464844 h 67.230469 c 1 0 1.816407 0.8125 1.816407 1.8125 s -0.816407 1.8125 -1.816407 1.8125 h -67.230469 c -1.003906 0 -1.816406 -0.8125 -1.816406 -1.8125 s 0.8125 -1.8125 1.816406 -1.8125 z m 0 0"/>
        <path d="m 31.507812 58.464844 h 67.230469 c 1 0 1.816407 0.8125 1.816407 1.8125 s -0.816407 1.8125 -1.816407 1.8125 h -67.230469 c -1.003906 0 -1.816406 -0.8125 -1.816406 -1.8125 s 0.8125 -1.8125 1.816406 -1.8125 z m 0 0"/>
        <path d="m 31.507812 64.464844 h 67.230469 c 1 0 1.816407 0.8125 1.816407 1.8125 s -0.816407 1.8125 -1.816407 1.8125 h -67.230469 c -1.003906 0 -1.816406 -0.8125 -1.816406 -1.8125 s 0.8125 -1.8125 1.816406 -1.8125 z m 0 0"/>
        <path d="m 31.507812 70.464844 h 67.230469 c 1 0 1.816407 0.8125 1.816407 1.8125 s -0.816407 1.8125 -1.816407 1.8125 h -67.230469 c -1.003906 0 -1.816406 -0.8125 -1.816406 -1.8125 s 0.8125 -1.8125 1.816406 -1.8125 z m 0 0"/>
        <path d="m 31.507812 76.464844 h 67.230469 c 1 0 1.816407 0.8125 1.816407 1.8125 s -0.816407 1.8125 -1.816407 1.8125 h -67.230469 c -1.003906 0 -1.816406 -0.8125 -1.816406 -1.8125 s 0.8125 -1.8125 1.816406 -1.8125 z m 0 0"/>
        <path d="m 31.507812 82.464844 h 67.230469 c 1 0 1.816407 0.8125 1.816407 1.8125 s -0.816407 1.8125 -1.816407 1.8125 h -67.230469 c -1.003906 0 -1.816406 -0.8125 -1.816406 -1.8125 s 0.8125 -1.8125 1.816406 -1.8125 z m 0 0"/>
        <path d="m 31.507812 88.464844 h 67.230469 c 1 0 1.816407 0.8125 1.816407 1.8125 s -0.816407 1.8125 -1.816407 1.8125 h -67.230469 c -1.003906 0 -1.816406 -0.8125 -1.816406 -1.8125 s 0.8125 -1.8125 1.816406 -1.8125 z m 0 0"/>
        <path d="m 31.507812 94.464844 h 67.230469 c 1 0 1.816407 0.8125 1.816407 1.8125 s -0.816407 1.8125 -1.816407 1.8125 h -67.230469 c -1.003906 0 -1.816406 -0.8125 -1.816406 -1.8125 s 0.8125 -1.8125 1.816406 -1.8125 z m 0 0"/>
        <path d="m 31.507812 100.464844 h 67.230469 c 1 0 1.816407 0.8125 1.816407 1.8125 s -0.816407 1.8125 -1.816407 1.8125 h -67.230469 c -1.003906 0 -1.816406 -0.8125 -1.816406 -1.8125 s 0.8125 -1.8125 1.816406 -1.8125 z m 0 0"/>
        <path d="m 31.507812 106.464844 h 67.230469 c 1 0 1.816407 0.8125 1.816407 1.8125 s -0.816407 1.8125 -1.816407 1.8125 h -67.230469 c -1.003906 0 -1.816406 -0.8125 -1.816406 -1.8125 s 0.8125 -1.8125 1.816406 -1.8125 z m 0 0"/>
    </g>
</svg>
